# CVS $Revision: $ $Author: $ -- Sat Nov 23 14:46:39 2013 -- reformated by prettylst.pl v1.50 (build 22134)
SOURCELONG:Advanced Race Guide	SOURCESHORT:ARG	SOURCEWEB:http://paizo.com/products/btpy8rv2?Pathfinder-Roleplaying-Game-Advanced-Race-Guide	SOURCEDATE:2012-06
# ORIGINAL ENTRY: Andrew Maitland
# ORIGINAL ENTRY DATE: Nov 25, 2012


###BLOCK: Ammunition
# Equipment Name		Type								Cost		Weight	Base Quantity	Source Page		Weapon prop. bonus	Special Property
Heartstake Bolts (5)	TYPE:Ammunition.Specific.Bolt.Racial.Dhampir	COST:100	WT:3		BASEQTY:5		SOURCEPAGE:p.99	BONUS:WEAPON|TOHIT|-2	SPROP:A vampire struck with a heartstake bolt takes the normal damage but must also succeed at a DC 20 Fortitude saving throw or fall to the ground helpless for 1 round.
#Note: Heartstake Bolts - decreases crossbow range by half


###BLOCK: Armor
# Equipment Name			Output Name					Required Weapon Proficiency				Type									Cost		Weight	Critical Hit Multiplier	Critical Hit Range	Damage	Wield Category	% of Spell Failure	Special Property
Helmet (Dwarven Boulder)	OUTPUTNAME:Helmet, Dwarven Boulder	PROFICIENCY:WEAPON|Helmet (Dwarven Boulder)	TYPE:Headgear.Weapon.Melee.Dwarven.Bludgeoning.Exotic	COST:20	WT:10		CRITMULT:x2			CRITRANGE:1			DAMAGE:1d4	WIELD:Light		SPELLFAILURE:20		SPROP:This heavy, reinforced helmet can be used to make melee attacks. The wearer may also use the helmet when attempting bull rush maneuvers, granting a +2 circumstance bonus on the check, but after completing the maneuver (whether successful or not), the wearer is staggered until the end of his next turn. In addition, the helmet grants a +2 circumstance bonus to the wearer's AC against critical hit confirmation rolls. A dwarven boulder helmet adds 20%% to the wearer's arcane spell failure chance. It occupies the head slot and is made of metal, not stone, meaning that it can be crafted from unusual materials as a metal weapon. A dwarven boulder helmet can be enchanted as a weapon (not as armor, despite providing some protection).|PRERULE:1,DisplayWeaponDetails


###BLOCK: Shield
# Equipment Name	Required Shield Proficiency		Type					Cost		Weight	AC Penalty Check	Modifier			Source Page		% of Spell Failure	Special Property
Celestial Shield	PROFICIENCY:SHIELD|Shield (Heavy)	TYPE:Shield.Heavy.Specific	COST:13170	WT:7		ACCHECK:0		EQMOD:BLIND.PLUS2A	SOURCEPAGE:p.88	SPELLFAILURE:0		SPROP:Allows the wielder to use feather fall on himself once per day. A creature wearing celestial armor while wielding a celestial shield may command the armor to provide overland flight rather than fly once per day.
Elysian Shield							TYPE:Shield.Tower.Specific	COST:52620	WT:45					EQMOD:GHOST_A.PLUS2A	SOURCEPAGE:p.89					SPROP:The wielder is immune to the create spawn ability of undead, and once per day as an immediate action can negate a single energy drain, ability drain, or ability damage attack by an undead creature. In addition, once per day as a standard action, the wielder can release a wave of positive energy that panics undead, as the Turn Undead feat (DC 20 Will negates).


###BLOCK: Weapon
# Equipment Name			Output Name						Required Weapon Proficiency				Type															Contains			Cost		Weight	Base Item for EQMOD			Critical Hit Multiplier	Critical Hit Range	Damage	Modifier			Wield Category	Requires Modification?	Range		Size		Source Page		Combat bonus					Weapon prop. bonus				Special Property
Rending Claw Blades																	TYPE:Weapon.Light.Melee.Piercing.Slashing.Finesseable											COST:10305	WT:1		BASEITEM:Claw Blades (Catfolk)											EQMOD:KEEN.PLUS1W													SOURCEPAGE:p.95															SPROP:When making a full attack with claws, if the wielder hits the same target with this weapon and a different claw attack or set of claw blades, he deals an extra 1d4 damage plus 1-1/2 times his Strength bonus. The wearer can deal this extra damage no more than once per round.
Rod of Shadows										PROFICIENCY:WEAPON|Mace (Light)			TYPE:Magic.Rod.Weapon.Melee.Light.Finesseable.Simple.Standard.Bludgeoning.Mace.Hammer					COST:64305	WT:5		BASEITEM:Rod				CRITMULT:x2			CRITRANGE:1			DAMAGE:1d6	EQMOD:PLUS2W.STEEL	WIELD:Light										SOURCEPAGE:p.106															SPROP:Allows its wielder to see in darkness as if it had the see in darkness ability (Bestiary 2 301). Three times per day, the wielder can use it to create a deeper darkness effect (caster level 8th).
Waraxe (Dwarven Double)		OUTPUTNAME:Waraxe, Dwarven Double		PROFICIENCY:WEAPON|Waraxe (Dwarven Double)	TYPE:Weapon.Melee.Dwarven.Slashing.Exotic													COST:60	WT:10								CRITMULT:x3			CRITRANGE:1			DAMAGE:1d10					WIELD:OneHanded																										SPROP:This hefty waraxe is similar to the common dwarven waraxe, but its recurved blade spans forward and back from its head like a deadly butterf ly. A dwarven double waraxe grants a +1 bonus on all attack rolls after the first when using Cleave or Great Cleave.|PRERULE:1,DisplayWeaponDetails
Longaxe (Dwarven)			OUTPUTNAME:Longaxe, Dwarven			PROFICIENCY:WEAPON|Longaxe (Dwarven)		TYPE:Weapon.Melee.Dwarven.Slashing.Exotic													COST:50	WT:14								CRITMULT:x3			CRITRANGE:1			DAMAGE:1d12					WIELD:TwoHanded																										SPROP:These ornate and heavy blades are mounted atop a long, steel-shod haft for greater reach. They are rare among cave-dwelling dwarves but common in mountain dwarf clans that commonly feud with giants.|PRERULE:1,DisplayWeaponDetails
Longhammer (Dwarven)		OUTPUTNAME:Longhammer, Dwarven		PROFICIENCY:WEAPON|Longhammer (Dwarven)		TYPE:Weapon.Melee.Dwarven.Bludgeoning.Exotic.Hammer											COST:70	WT:20								CRITMULT:x3			CRITRANGE:1			DAMAGE:2d6					WIELD:TwoHanded																										SPROP:These heavy-headed bludgeons are often carved or cast with monstrous faces or drilled with tiny holes to create a menacing whistling as they are swung through the air.|PRERULE:1,DisplayWeaponDetails
Swift Obsidian Greataxe									PROFICIENCY:WEAPON|Greataxe				TYPE:Weapon.Melee.TwoHanded.Martial.Standard.Slashing.Axe										COST:11320	WT:12								CRITMULT:x3			CRITRANGE:1			DAMAGE:1d12	EQMOD:KEEN.PLUS1W		WIELD:TwoHanded							SIZE:M	SOURCEPAGE:p.58															SPROP:When the wielder charges an enemy, he receives a +10 foot enhancement bonus to his speed that round. Once per day, he can command the axe to grant all allies within 30 feet a +10 foot enhancement bonus to base speed for 1 round.|PRERULE:1,DisplayWeaponDetails
Rod of Steadfast Resolve								PROFICIENCY:WEAPON|Mace (Light)			TYPE:Magic.Rod.Weapon.Melee.Light.Finesseable.Simple.Standard.Bludgeoning.Mace.Hammer					COST:38305	WT:5		BASEITEM:Rod				CRITMULT:x2			CRITRANGE:1			DAMAGE:1d6	EQMOD:PLUS2W.STEEL	WIELD:Light								SIZE:M	SOURCEPAGE:p.79															SPROP:While a creature wields this rod, it grants all its allies within a 20-foot radius burst a +2 morale bonus on saving throws against fear and emotion effects, or a +4 morale bonus on such saves if the ally has the human subtype. Also, once per day as an immediate action, the wielder can activate the rod to allow himself or a single ally within the rod's aura to reroll a failed saving throw against a spell or effect with the fear or emotion descriptor. The affected creature must take the result of the reroll, even if it is worse.|PRERULE:1,DisplayWeaponDetails
Claw Blades (Catfolk)		OUTPUTNAME:Claw Blades, Catfolk		PROFICIENCY:WEAPON|Claw					TYPE:Weapon.Light.Melee.Slashing.Finesseable												COST:305	WT:2								CRITMULT:x2			CRITRANGE:1			DAMAGE:1d4					WIELD:Light		MODS:YES					SIZE:M	SOURCEPAGE:p.93								BONUS:WEAPON|TOHIT|1|TYPE=Enhancement	SPROP:Bought in a set of five, they fit over the wearer's claws on one hand. The blades grant the wearer a +1 enhancement bonus on claw attack rolls with that hand and change the weapon type from a natural weapon to a light slashing weapon. Catfolk with the cat's claws racial trait are proficient with this weapon.|PRERULE:1,DisplayWeaponDetails
Gloom Blade											PROFICIENCY:WEAPON|Sword (Short)			TYPE:Weapon.Melee.Light.Finesseable.Martial.Specific.Piercing.Slashing.Sword.BladeLight					COST:8810	WT:2		BASEITEM:Sword (Short)													EQMOD:MWORKW		WIELD:Light								SIZE:M	SOURCEPAGE:p.106															SPROP:acts as a +1 short sword when in dim light. In darkness, it acts as +2 short sword. When surrounded by supernatural darkness, such as in an area of deeper darkness, it acts a +2 short sword and bestows the benefit of the Blind-Fight feat to its wielder.|PRERULE:1,DisplayWeaponDetails
Dogslicer											PROFICIENCY:WEAPON|Dogslicer				TYPE:Weapon.Melee.Slashing.Goblin														COST:8	WT:1								CRITMULT:x2			CRITRANGE:2			DAMAGE:1d4	EQMOD:FRAGILE		WIELD:OneHanded							SIZE:S	SOURCEPAGE:p.117															SPROP:This short, curved sword is a favorite weapon of goblins, who show unusual cunning by drilling numerous holes in the blade to reduce the weapon's weight. Masterwork versions of a dogslicer lose the fragile special weapon ability.|PRERULE:1,DisplayWeaponDetails
Horsechopper										PROFICIENCY:WEAPON|Horsechopper			TYPE:Weapon.Melee.Reach.Trip.Slashing.Goblin												COST:10	WT:12								CRITMULT:x3			CRITRANGE:1			DAMAGE:1d8					WIELD:TwoHanded							SIZE:S	SOURCEPAGE:p.118															SPROP:Crafted by goblins to give themselves an advantage against horses, this weapon is essentially a halberd with an enlarged hook opposite the blade.|PRERULE:1,DisplayWeaponDetails
Tail Attachment (Long Lash)	OUTPUTNAME:Tail Attachment, Long Lash	PROFICIENCY:WEAPON|Kobold Tail Attachment		TYPE:Weapon.Melee.Light.KoboldTailAttachment.Slashing.Reach.Finesseable								COST:15	WT:1								CRITMULT:x2			CRITRANGE:1			DAMAGE:1d6					WIELD:Light																											SPROP:This slender cord has tiny bits of glass and stone embedded in its length.|PRERULE:1,DisplayWeaponDetails
Tail Attachment (Pounder)	OUTPUTNAME:Tail Attachment, Pounder		PROFICIENCY:WEAPON|Kobold Tail Attachment		TYPE:Weapon.Melee.Light.KoboldTailAttachment.Bludgeoning.Finesseable								COST:1	WT:4								CRITMULT:x2			CRITRANGE:1			DAMAGE:1d8					WIELD:Light																											SPROP:This squat ball is made from some sort of dull metal.|PRERULE:1,DisplayWeaponDetails
Tail Attachment (Razored)	OUTPUTNAME:Tail Attachment, Razored		PROFICIENCY:WEAPON|Kobold Tail Attachment		TYPE:Weapon.Melee.Light.KoboldTailAttachment.Slashing.Finesseable									COST:3	WT:2								CRITMULT:x2			CRITRANGE:2			DAMAGE:1d8					WIELD:Light																											SPROP:This metal wedge has a prickly edge on one of its sides.|PRERULE:1,DisplayWeaponDetails
Tail Attachment (Spiked)	OUTPUTNAME:Tail Attachment, Spiked		PROFICIENCY:WEAPON|Kobold Tail Attachment		TYPE:Weapon.Melee.Light.KoboldTailAttachment.Piercing.Finesseable									COST:3	WT:2								CRITMULT:x3			CRITRANGE:1			DAMAGE:1d8					WIELD:Light																											SPROP:This narrow spike tapers to a sharp point.|PRERULE:1,DisplayWeaponDetails
Tail Attachment (Sweeper)	OUTPUTNAME:Tail Attachment, Sweeper		PROFICIENCY:WEAPON|Kobold Tail Attachment		TYPE:Weapon.Melee.Light.KoboldTailAttachment.Bludgeoning.Trip.Finesseable							COST:7	WT:3								CRITMULT:x2			CRITRANGE:1			DAMAGE:1d6					WIELD:Light																											SPROP:When properly used, this sharply curved piece of metal can knock opponents off their feet. Unlike most trip weapons, you cannot drop it if you are tripped during your own trip attempt.|PRERULE:1,DisplayWeaponDetails
Earthbind Rod										PROFICIENCY:WEAPON|Mace (Light)			TYPE:Magic.Rod.Weapon.Melee.Light.Finesseable.Simple.Specific.Bludgeoning.Mace.Hammer					COST:26500	WT:5								CRITMULT:x2			CRITRANGE:1			DAMAGE:1d6	EQMOD:PLUS1W.STEEL												SOURCEPAGE:p.148															SPROP:Grants its wielder a +4 circumstance bonus to its CMD against bull rush, grapple, overrun, reposition, and trip combat maneuvers, but only if the wielder is an oread, has the earth subtype, or is standing on earth or stone. Three times per day, when the wielder hits a creature with this rod, as long as the target of this attack is standing on stone or earth, the wielder can attempt to entangle that creature (Fortitude DC 18 negates) for 1d4 rounds.
Tailblade (Ratfolk)									PROFICIENCY:WEAPON|Tailblade (Ratfolk)		TYPE:Weapon.Light.Melee.Slashing.RatfolkTailblade.Finesseable									COST:11	WT:0.5							CRITMULT:x2			CRITRANGE:1			DAMAGE:1d2					WIELD:Light								SIZE:S	SOURCEPAGE:p.154															SPROP:A tailblade is a small, sharp knife designed to be strapped to the tip of a wielder's tail. A ratfolk wielding a tailblade can make a tail attack, adding its Strength modifier to the tailblade's damage. Ratfolk are considered proficient with such attacks and can apply feats or effects appropriate to natural attacks to tail attacks made with a tailblade. If used as part of a full attack action, attacks with a tailblade are considered secondary attacks.|PRERULE:1,DisplayWeaponDetails
Terror Kite											PROFICIENCY:WEAPON|Terror Kite			TYPE:TerrorKite																	COST:20																	DAMAGE:1d6					WIELD:TwoHanded							SIZE:M	SOURCEPAGE:p.165															SPROP:Participants in a kite battle make alternating sunder combat maneuvers against each other's kites; each successful maneuver allows a competitor to roll 1d6 points of damage against the opponent's kite. When a kite reaches 0 hit points, it is broken or its string is cut, and its player loses the match. In some matches, points are awarded for touching the kite's top to the opponent's string, with the winner being the first to reach a set point total.|PRERULE:1,DisplayWeaponDetails
Sea-Knife											PROFICIENCY:WEAPON|Sea-Knife				TYPE:Weapon.Light.Melee.Piercing.Slashing.Exotic.Finesseable										COST:8	WT:1								CRITMULT:x2			CRITRANGE:2			DAMAGE:1d4					WIELD:Light								SIZE:M	SOURCEPAGE:p.189	BONUS:COMBAT|AC|-2|TYPE=Circumstance								SPROP:The wearer cannot use a leg with a sea-knife strapped to it for walking or running. A sea-knife can be used as a light melee weapon when the wielder is swimming, f lying, or prone. This allows the wielder to use a two-handed weapon, or wield a weapon with one hand and carry a shield, and still make off-hand attacks with the sea-knife.|PRERULE:1,DisplayWeaponDetails
Underwater Crossbow (Light)	OUTPUTNAME:Underwater Crossbow, Light	PROFICIENCY:WEAPON|Crossbow (Light)			TYPE:Weapon.Simple.Ranged.Standard.Piercing.Container.Projectile.Crossbow			CONTAINS:UNLIM|Bolt	COST:70	WT:4								CRITMULT:x2			CRITRANGE:2			DAMAGE:1d8														SIZE:M	SOURCEPAGE:p.195															SPROP:An underwater crossbow functions like its normal counterpart above water, and can be used underwater. When fired underwater, the crossbow has a range increment of 20 feet.|PRERULE:1,DisplayWeaponDetails
Underwater Crossbow (Heavy)	OUTPUTNAME:Underwater Crossbow, Heavy	PROFICIENCY:WEAPON|Crossbow (Heavy)			TYPE:Weapon.Simple.Ranged.Standard.Piercing.Container.Projectile.Crossbow			CONTAINS:UNLIM|Bolt	COST:100	WT:8								CRITMULT:x2			CRITRANGE:2			DAMAGE:1d10														SIZE:M	SOURCEPAGE:p.195															SPROP:An underwater crossbow functions like its normal counterpart above water, and can be used underwater. When fired underwater, the crossbow has a range increment of 20 feet.|PRERULE:1,DisplayWeaponDetails
Snag Net											PROFICIENCY:WEAPON|Net					TYPE:Weapon.Exotic.Ranged.Standard.Thrown													COST:30	WT:10																		EQMOD:CLOTH										RANGE:10	SIZE:M	SOURCEPAGE:p.201															SPROP:You make a ranged touch attack against your target. A net's maximum range is 10 feet. If you hit, the target is entangled. If you entangle an opponent and hold the trailing rope, on your turn in place of a melee attack you may make a trip combat maneuver check against that opponent; if you succeed, you may trip the opponent or deal 1 point of piercing damage to the opponent.|PRERULE:1,DisplayWeaponDetails
Jolting Dart										PROFICIENCY:WEAPON|Dart					TYPE:Weapon.Simple.Ranged.Standard.Piercing.Electricity.Thrown.Dart								COST:100	WT:0.5							CRITMULT:x2			CRITRANGE:1			DAMAGE:1d3														SIZE:S	SOURCEPAGE:p.205															SPROP:1d6 Electricity
